^\\LIVT-PFS\ROAMING PROFILES\K.PAVLOV\DOCUMENTS\VISUAL STUDIO 2012\PROJECTS\LAB1_PARPROGR\LAB1_PARPROGR\STDAFX.CPP
\\LIVT-PFS\ROAMING PROFILES\K.PAVLOV\DOCUMENTS\VISUAL STUDIO 2012\PROJECTS\LAB1_PARPROGR\LAB1_PARPROGR\DEBUG\LAB1_PARPROGR.PCH
\\LIVT-PFS\ROAMING PROFILES\K.PAVLOV\DOCUMENTS\VISUAL STUDIO 2012\PROJECTS\LAB1_PARPROGR\LAB1_PARPROGR\DEBUG\STDAFX.OBJ
\\LIVT-PFS\ROAMING PROFILES\K.PAVLOV\DOCUMENTS\VISUAL STUDIO 2012\PROJECTS\LAB1_PARPROGR\LAB1_PARPROGR\DEBUG\VC110.PDB
^\\LIVT-PFS\ROAMING PROFILES\K.PAVLOV\DOCUMENTS\VISUAL STUDIO 2012\PROJECTS\LAB1_PARPROGR\LAB1_PARPROGR\LAB1_PARPROGR.CPP
\\LIVT-PFS\ROAMING PROFILES\K.PAVLOV\DOCUMENTS\VISUAL STUDIO 2012\PROJECTS\LAB1_PARPROGR\LAB1_PARPROGR\DEBUG\VC110.PDB
\\LIVT-PFS\ROAMING PROFILES\K.PAVLOV\DOCUMENTS\VISUAL STUDIO 2012\PROJECTS\LAB1_PARPROGR\LAB1_PARPROGR\DEBUG\LAB1_PARPROGR.OBJ
